{
  "appId": "dev.inyur",
  "appName": "mobile-app",
  "bundledWebRuntime": true,
  "npmClient": "npm",
  "webDir": "www",
  "plugins": {
    "SplashScreen": {
      "launchShowDuration": 0
    }
  }
}
